ROM/simulation/qsim/ROM.msim.vcd
$comment
	File created using the following command:
		vcd file ROM.msim.vcd -direction
$end
$date
	Sun Jun 29 22:37:14 2025
$end
$version
	ModelSim Version 10.5b
$end
$timescale
	1ps
$end

$scope module ROM_vlg_vec_tst $end
$var reg 8 ! addr [7:0] $end
$var reg 1 " clk $end
$var reg 1 # read $end
$var wire 1 $ data_out [15] $end
$var wire 1 % data_out [14] $end
$var wire 1 & data_out [13] $end
$var wire 1 ' data_out [12] $end
$var wire 1 ( data_out [11] $end
$var wire 1 ) data_out [10] $end
$var wire 1 * data_out [9] $end
$var wire 1 + data_out [8] $end
$var wire 1 , data_out [7] $end
$var wire 1 - data_out [6] $end
$var wire 1 . data_out [5] $end
$var wire 1 / data_out [4] $end
$var wire 1 0 data_out [3] $end
$var wire 1 1 data_out [2] $end
$var wire 1 2 data_out [1] $end
$var wire 1 3 data_out [0] $end

$scope module i1 $end
$var wire 1 4 gnd $end
$var wire 1 5 vcc $end
$var wire 1 6 unknown $end
$var tri1 1 7 devclrn $end
$var tri1 1 8 devpor $end
$var tri1 1 9 devoe $end
$var wire 1 : clk~combout $end
$var wire 1 ; WideOr9~0_combout $end
$var wire 1 < Decoder0~0_combout $end
$var wire 1 = read~combout $end
$var wire 1 > data_out[0]~reg0_regout $end
$var wire 1 ? WideOr8~0_combout $end
$var wire 1 @ data_out[1]~reg0_regout $end
$var wire 1 A WideOr7~0_combout $end
$var wire 1 B data_out[2]~reg0_regout $end
$var wire 1 C Decoder0~1_combout $end
$var wire 1 D data_out[3]~reg0_regout $end
$var wire 1 E WideOr6~0_combout $end
$var wire 1 F data_out[6]~reg0_regout $end
$var wire 1 G WideOr5~0_combout $end
$var wire 1 H data_out[7]~reg0_regout $end
$var wire 1 I WideOr4~0_combout $end
$var wire 1 J data_out[8]~reg0_regout $end
$var wire 1 K WideOr3~0_combout $end
$var wire 1 L data_out[12]~reg0_regout $end
$var wire 1 M WideOr2~0_combout $end
$var wire 1 N data_out[13]~reg0_regout $end
$var wire 1 O WideOr1~0_combout $end
$var wire 1 P data_out[14]~reg0_regout $end
$var wire 1 Q WideOr0~0_combout $end
$var wire 1 R data_out[15]~reg0_regout $end
$var wire 1 S addr~combout [7] $end
$var wire 1 T addr~combout [6] $end
$var wire 1 U addr~combout [5] $end
$var wire 1 V addr~combout [4] $end
$var wire 1 W addr~combout [3] $end
$var wire 1 X addr~combout [2] $end
$var wire 1 Y addr~combout [1] $end
$var wire 1 Z addr~combout [0] $end
$upscope $end
$upscope $end
$enddefinitions $end
#0
$dumpvars
b0 !
0"
1#
03
02
01
00
0/
0.
0-
0,
0+
0*
0)
0(
0'
0&
0%
0$
04
15
x6
17
18
19
0:
0;
1<
1=
0>
0?
0@
0A
0B
0C
0D
0E
0F
0G
0H
0I
0J
0K
0L
0M
0N
0O
0P
0Q
0R
0Z
0Y
0X
0W
0V
0U
0T
0S
$end
#5000
1"
1:
1L
1F
1@
1'
1-
12
#10000
b1 !
0"
1Z
0:
1M
1K
1I
1E
1;
#15000
1"
1:
1N
0L
1J
0F
1>
1&
0'
1+
0-
13
#20000
b11 !
b10 !
0"
0Z
1Y
0:
0K
0I
1G
1A
1?
#25000
1"
1:
1L
0J
1H
1B
0@
1'
0+
1,
11
02
#30000
b11 !
0"
1Z
0:
1O
0M
1K
0E
1C
0?
0;
#35000
1"
1:
1P
0N
0L
1F
1@
0>
1%
0&
0'
1-
12
03
#40000
b111 !
b101 !
b100 !
0"
0Z
0Y
1X
0:
0K
1I
0G
0C
1?
#45000
1"
1:
1L
1J
0H
0@
1'
1+
0,
02
#50000
b101 !
0"
1Z
0:
1M
1K
1G
0A
1;
#55000
1"
1:
1N
0L
1H
0B
1>
1&
0'
1,
01
13
#60000
b111 !
b110 !
0"
0Z
1Y
0:
1Q
0O
0I
1E
1A
0?
#65000
1"
1:
1R
0P
0J
0F
1B
1@
1$
0%
0+
0-
11
12
#70000
b111 !
0"
1Z
0:
0K
0E
1C
0A
0;
#75000
1"
1:
1L
1F
0B
0>
1'
1-
01
03
#80000
b1111 !
b1011 !
b1001 !
b1000 !
0"
0Z
0Y
0X
1W
0:
0Q
1O
1I
0G
1E
0C
1?
#85000
1"
1:
0R
1P
1J
0H
0F
0@
0$
1%
1+
0,
0-
02
#90000
b1001 !
0"
1Z
0:
1Q
0O
0M
1K
0E
#95000
1"
1:
1R
0P
0N
0L
1F
1$
0%
0&
0'
1-
#100000
b1011 !
b1010 !
0"
0Z
1Y
0:
0K
1G
1E
#105000
1"
1:
1L
1H
0F
1'
1,
0-
#110000
b1011 !
0"
1Z
0:
1O
1K
0I
0G
0E
1C
1A
0?
1;
#115000
1"
1:
1P
0L
0J
0H
1F
1D
1B
1@
1>
1%
0'
0+
0,
1-
10
11
12
13
#120000
b1111 !
b1101 !
b1100 !
0"
0Z
0Y
1X
0:
0K
1G
1E
0C
0A
#125000
1"
1:
1L
1H
0F
0D
0B
1'
1,
0-
00
01
#130000
b1101 !
0"
1Z
0:
0Q
0O
1K
0G
1?
0;
#135000
1"
1:
0R
0P
0L
0H
0@
0>
0$
0%
0'
0,
02
03
#140000
b1111 !
b1110 !
0"
0Z
1Y
0:
#145000
1"
1:
#150000
b1111 !
0"
1Z
0:
1C
#155000
1"
1:
#160000
b11111 !
b10111 !
b10011 !
b10001 !
b10000 !
0"
0Z
0Y
0X
0W
1V
0:
0K
0E
0C
0?
0<
#165000
1"
1:
#170000
b10001 !
0"
1Z
0:
1M
1K
1I
1E
1;
#175000
1"
1:
#180000
b10011 !
b10010 !
0"
0Z
1Y
0:
0K
0I
1G
1A
1?
#185000
1"
1:
#190000
b10011 !
0"
1Z
0:
1O
0M
1K
0E
1C
0?
0;
#195000
1"
1:
