FSM/simulation/qsim/FSM.msim.vcd
$comment
	File created using the following command:
		vcd file FSM.msim.vcd -direction
$end
$date
	Sun Jun 29 12:16:43 2025
$end
$version
	ModelSim Version 10.5b
$end
$timescale
	1ps
$end

$scope module FSM_vlg_vec_tst $end
$var reg 1 ! clk $end
$var reg 1 " reset $end
$var wire 1 # ir_load $end
$var wire 1 $ pc [7] $end
$var wire 1 % pc [6] $end
$var wire 1 & pc [5] $end
$var wire 1 ' pc [4] $end
$var wire 1 ( pc [3] $end
$var wire 1 ) pc [2] $end
$var wire 1 * pc [1] $end
$var wire 1 + pc [0] $end
$var wire 1 , rom_read_enable $end
$var wire 1 - state [2] $end
$var wire 1 . state [1] $end
$var wire 1 / state [0] $end

$scope module i1 $end
$var wire 1 0 gnd $end
$var wire 1 1 vcc $end
$var wire 1 2 unknown $end
$var tri1 1 3 devclrn $end
$var tri1 1 4 devpor $end
$var tri1 1 5 devoe $end
$var wire 1 6 clk~combout $end
$var wire 1 7 reset~combout $end
$var wire 1 8 state[0]~reg0_regout $end
$var wire 1 9 state[2]~reg0_regout $end
$var wire 1 : state[1]~reg0_regout $end
$var wire 1 ; ir_load~reg0_regout $end
$var wire 1 < pc[0]~reg0_regout $end
$var wire 1 = Decoder0~0_combout $end
$var wire 1 > pc[1]~reg0_regout $end
$var wire 1 ? pc[1]~1 $end
$var wire 1 @ pc[2]~reg0_regout $end
$var wire 1 A pc[2]~3 $end
$var wire 1 B pc[3]~reg0_regout $end
$var wire 1 C pc[3]~5 $end
$var wire 1 D pc[4]~reg0_regout $end
$var wire 1 E pc[4]~7 $end
$var wire 1 F pc[5]~reg0_regout $end
$var wire 1 G pc[5]~9 $end
$var wire 1 H pc[6]~reg0_regout $end
$var wire 1 I pc[6]~11 $end
$var wire 1 J pc[7]~reg0_regout $end
$upscope $end
$upscope $end
$enddefinitions $end
#0
$dumpvars
0!
0"
0#
0+
0*
0)
0(
0'
0&
0%
0$
0,
0/
0.
0-
00
11
x2
13
14
15
06
07
08
09
0:
0;
0<
0=
0>
0?
0@
1A
0B
0C
0D
1E
0F
0G
0H
1I
0J
$end
#5000
1!
16
1;
18
1,
1#
1/
#10000
0!
06
#15000
1!
16
0;
1:
08
0,
0#
1.
0/
#20000
0!
06
#25000
1!
16
18
1/
#30000
0!
06
#35000
1!
16
0:
19
08
0.
1-
0/
#40000
0!
06
#45000
1!
16
18
1=
1/
#50000
0!
06
#55000
1!
16
1<
09
08
0=
1+
0-
0/
#60000
0!
06
#65000
1!
16
1;
18
1,
1#
1/
#70000
0!
06
#75000
1!
16
0;
1:
08
0,
0#
1.
0/
#80000
0!
06
#85000
1!
16
18
1/
#90000
0!
06
#95000
1!
16
0:
19
08
0.
1-
0/
#100000
0!
06
#105000
1!
16
18
1=
1/
#110000
0!
06
#115000
1!
16
1>
0<
09
08
0=
1*
0+
0-
0/
#120000
0!
06
#125000
1!
16
1;
18
1,
1#
1/
#130000
0!
06
#135000
1!
16
0;
1:
08
0,
0#
1.
0/
#140000
0!
06
#145000
1!
16
18
1/
#150000
0!
06
#155000
1!
16
0:
19
08
0.
1-
0/
#160000
0!
06
#165000
1!
16
18
1=
1/
#170000
0!
06
#175000
1!
16
1<
09
08
1?
0=
1+
0-
0/
#180000
0!
06
#185000
1!
16
1;
18
1,
1#
1/
#190000
0!
06
#195000
1!
16
0;
1:
08
0,
0#
1.
0/
#200000
0!
06
#205000
1!
16
18
1/
#210000
0!
06
#215000
1!
16
0:
19
08
0.
1-
0/
#220000
0!
06
#225000
1!
16
18
1=
1/
#230000
0!
06
#235000
1!
16
1@
0>
0<
09
08
0A
0?
0=
1)
0*
0+
0-
0/
1A
#240000
0!
06
#245000
1!
16
1;
18
1,
1#
1/
#250000
0!
06
#255000
1!
16
0;
1:
08
0,
0#
1.
0/
#260000
0!
06
#265000
1!
16
18
1/
#270000
0!
06
#275000
1!
16
0:
19
08
0.
1-
0/
#280000
0!
06
#285000
1!
16
18
1=
1/
#290000
0!
06
#295000
1!
16
1<
09
08
0=
1+
0-
0/
#300000
0!
06
#305000
1!
16
1;
18
1,
1#
1/
#310000
0!
06
#315000
1!
16
0;
1:
08
0,
0#
1.
0/
#320000
0!
06
#325000
1!
16
18
1/
#330000
0!
06
#335000
1!
16
0:
19
08
0.
1-
0/
#340000
0!
06
#345000
1!
16
18
1=
1/
#350000
0!
06
#355000
1!
16
1>
0<
09
08
0=
1*
0+
0-
0/
#360000
0!
06
#365000
1!
16
1;
18
1,
1#
1/
#370000
0!
06
#375000
1!
16
0;
1:
08
0,
0#
1.
0/
#380000
0!
06
#385000
1!
16
18
1/
#390000
0!
06
#395000
1!
16
0:
19
08
0.
1-
0/
#400000
0!
06
#405000
1!
16
18
1=
1/
#410000
0!
06
#415000
1!
16
1<
09
08
1?
0=
1+
0-
0/
0A
#420000
0!
06
#425000
1!
16
1;
18
1,
1#
1/
#430000
0!
06
#435000
1!
16
0;
1:
08
0,
0#
1.
0/
#440000
0!
06
#445000
1!
16
18
1/
#450000
0!
06
#455000
1!
16
0:
19
08
0.
1-
0/
#460000
0!
06
#465000
1!
16
18
1=
1/
#470000
0!
06
#475000
1!
16
1B
0@
0>
0<
09
08
1C
1A
0?
0=
1(
0)
0*
0+
0-
0/
0C
#480000
0!
06
#485000
1!
16
1;
18
1,
1#
1/
#490000
0!
06
#495000
1!
16
0;
1:
08
0,
0#
1.
0/
#500000
0!
06
#505000
1!
16
18
1/
#510000
0!
06
#515000
1!
16
0:
19
08
0.
1-
0/
#520000
0!
06
#525000
1!
16
18
1=
1/
#530000
0!
06
#535000
1!
16
1<
09
08
0=
1+
0-
0/
#540000
0!
06
#545000
1!
16
1;
18
1,
1#
1/
#550000
0!
06
#555000
1!
16
0;
1:
08
0,
0#
1.
0/
#560000
0!
06
#565000
1!
16
18
1/
#570000
0!
06
#575000
1!
16
0:
19
08
0.
1-
0/
#580000
0!
06
#585000
1!
16
18
1=
1/
#590000
0!
06
#595000
1!
16
1>
0<
09
08
0=
1*
0+
0-
0/
#600000
0!
06
#605000
1!
16
1;
18
1,
1#
1/
#610000
0!
06
#615000
1!
16
0;
1:
08
0,
0#
1.
0/
#620000
0!
06
#625000
1!
16
18
1/
#630000
0!
06
#635000
1!
16
0:
19
08
0.
1-
0/
#640000
0!
06
#645000
1!
16
18
1=
1/
#650000
0!
06
#655000
1!
16
1<
09
08
1?
0=
1+
0-
0/
#660000
0!
06
#665000
1!
16
1;
18
1,
1#
1/
#670000
0!
06
#675000
1!
16
0;
1:
08
0,
0#
1.
0/
#680000
0!
06
#685000
1!
16
18
1/
#690000
0!
06
#695000
1!
16
0:
19
08
0.
1-
0/
#700000
0!
06
#705000
1!
16
18
1=
1/
#710000
0!
06
#715000
1!
16
1@
0>
0<
09
08
0A
0?
0=
1)
0*
0+
0-
0/
1C
1A
0C
#720000
0!
06
#725000
1!
16
1;
18
1,
1#
1/
#730000
0!
06
#735000
1!
16
0;
1:
08
0,
0#
1.
0/
#740000
0!
06
#745000
1!
16
18
1/
#750000
0!
06
#755000
1!
16
0:
19
08
0.
1-
0/
#760000
0!
06
#765000
1!
16
18
1=
1/
#770000
0!
06
#775000
1!
16
1<
09
08
0=
1+
0-
0/
#780000
0!
06
#785000
1!
16
1;
18
1,
1#
1/
#790000
0!
06
#795000
1!
16
0;
1:
08
0,
0#
1.
0/
#800000
0!
06
#805000
1!
16
18
1/
#810000
0!
06
#815000
1!
16
0:
19
08
0.
1-
0/
#820000
0!
06
#825000
1!
16
18
1=
1/
#830000
0!
06
#835000
1!
16
1>
0<
09
08
0=
1*
0+
0-
0/
#840000
0!
06
#845000
1!
16
1;
18
1,
1#
1/
#850000
0!
06
#855000
1!
16
0;
1:
08
0,
0#
1.
0/
#860000
0!
06
#865000
1!
16
18
1/
#870000
1"
0!
17
06
0B
0@
0>
0:
08
0(
0)
0*
0.
0/
#875000
1!
16
#880000
0"
0!
07
06
#885000
1!
16
1;
18
1,
1#
1/
#890000
0!
06
#895000
1!
16
0;
1:
08
0,
0#
1.
0/
#900000
0!
06
#905000
1!
16
18
1/
#910000
0!
06
#915000
1!
16
0:
19
08
0.
1-
0/
#920000
0!
06
#925000
1!
16
18
1=
1/
#930000
0!
06
#935000
1!
16
1<
09
08
0=
1+
0-
0/
#940000
0!
06
#945000
1!
16
1;
18
1,
1#
1/
#950000
0!
06
#955000
1!
16
0;
1:
08
0,
0#
1.
0/
#960000
0!
06
#965000
1!
16
18
1/
#970000
0!
06
#975000
1!
16
0:
19
08
0.
1-
0/
#980000
0!
06
#985000
1!
16
18
1=
1/
#990000
0!
06
#995000
1!
16
1>
0<
09
08
0=
1*
0+
0-
0/
